<svg width="40" height="40" viewBox="0 0 40 40" fill="none" xmlns="http://www.w3.org/2000/svg">
<g clip-path="url(#clip0)">
<path d="M39.8126 13.3653L32.0549 5.60747C31.8054 5.35794 31.401 5.35794 31.1514 5.60747L27.2725 9.48635C27.1527 9.60612 27.0855 9.76862 27.0855 9.93807C27.0855 10.1075 27.1527 10.27 27.2725 10.3898L27.6594 10.7767L26.7702 11.6658C26.193 12.2428 25.2973 12.4003 24.5415 12.0573C23.8329 11.7356 23.0452 11.5657 22.2633 11.5657C21.3349 11.5657 20.4277 11.7988 19.6216 12.2402C19.2854 12.1574 18.9404 12.1149 18.592 12.1149C18.0881 12.1149 17.5932 12.2019 17.121 12.3735C16.367 12.6474 15.5588 12.4777 15.0114 11.9304L13.4147 10.3337L13.6049 10.1435C13.7247 10.0238 13.7919 9.86127 13.7919 9.69182C13.7919 9.52237 13.7247 9.35987 13.6049 9.2401L9.72602 5.36122C9.47641 5.11169 9.07204 5.11169 8.82251 5.36122L0.187089 13.9966C-0.0623629 14.2462 -0.0623629 14.6506 0.187089 14.9001L4.06589 18.779C4.18574 18.8988 4.34816 18.9661 4.51769 18.9661C4.68722 18.9661 4.84956 18.8988 4.96948 18.779L5.20081 18.5476L6.3269 19.6737C6.61104 19.9579 6.79939 20.3126 6.8715 20.6996C7.24541 22.706 8.20634 24.5302 9.65039 25.975L9.8625 26.1871C9.45516 26.6161 9.2311 27.175 9.2311 27.7687C9.2311 28.3829 9.47032 28.9603 9.90453 29.3946C10.3528 29.8429 10.9415 30.0669 11.5304 30.0669C11.5687 30.0669 11.6069 30.0659 11.6453 30.064C11.6142 30.6904 11.8373 31.3272 12.3147 31.8047C12.749 32.239 13.3264 32.4782 13.9405 32.4782C13.9576 32.4782 13.9747 32.4773 13.9918 32.4769C13.9787 33.0823 14.202 33.6919 14.6629 34.1529C15.0972 34.5873 15.6747 34.8264 16.2889 34.8264C16.903 34.8264 17.4803 34.5871 17.9147 34.1529C17.9513 34.1164 17.9857 34.0786 18.0194 34.0403C18.2456 34.1191 18.4848 34.1611 18.7266 34.1611C19.301 34.1611 19.8407 33.9372 20.2454 33.5312C20.4608 33.3159 20.6242 33.0626 20.7306 32.7868L20.796 32.8522C21.2147 33.2708 21.7646 33.4802 22.3145 33.4802C22.8645 33.4802 23.4144 33.2708 23.833 32.8522C24.0555 32.6297 24.2227 32.3669 24.3287 32.0804C24.7034 32.353 25.1471 32.4895 25.591 32.4895C26.1409 32.4895 26.6912 32.2802 27.1102 31.8617C27.5158 31.4561 27.7391 30.9166 27.7391 30.3426C27.7391 30.1691 27.7183 29.999 27.6787 29.8346C28.0879 29.7515 28.4638 29.5506 28.7654 29.2486C29.171 28.843 29.3943 28.3037 29.3943 27.7301C29.3943 27.2781 29.2551 26.8479 28.998 26.4871L29.5105 25.9746C30.9714 24.5131 31.9364 22.666 32.3015 20.6332C32.3627 20.2928 32.5313 19.9766 32.7892 19.7186L34.6953 17.8125L35.0304 18.1476C35.1552 18.2723 35.3187 18.3347 35.4822 18.3347C35.6456 18.3347 35.8092 18.2723 35.934 18.1476L39.8129 14.2687C39.9326 14.1489 39.9999 13.9864 39.9999 13.817C39.9999 13.6475 39.9324 13.4852 39.8126 13.3653ZM4.51769 17.4239L1.54224 14.4484L9.27415 6.71652L12.2497 9.69198L4.51769 17.4239ZM12.2527 28.4913C11.8545 28.8894 11.2065 28.8896 10.808 28.4913C10.615 28.2983 10.5087 28.0418 10.5087 27.7689C10.5087 27.4961 10.6151 27.2395 10.808 27.0466C11.0072 26.8474 11.2687 26.7478 11.5303 26.7478C11.7919 26.7478 12.0536 26.8474 12.2526 27.0466C12.6509 27.4448 12.6509 28.093 12.2527 28.4913ZM14.6627 30.9013C14.4699 31.0944 14.2134 31.2005 13.9404 31.2005C13.6676 31.2005 13.411 31.0942 13.2181 30.9013C12.8198 30.503 12.8198 29.8549 13.2181 29.4566C13.4172 29.2574 13.6787 29.1578 13.9404 29.1578C14.2019 29.1578 14.4636 29.2574 14.6627 29.4566C15.0611 29.8548 15.0611 30.503 14.6627 30.9013ZM17.011 33.2495C16.818 33.4425 16.5615 33.5487 16.2887 33.5487C16.0158 33.5487 15.7593 33.4424 15.5664 33.2495C15.168 32.8512 15.168 32.2031 15.5664 31.8047C15.7655 31.6056 16.027 31.506 16.2887 31.506C16.5502 31.506 16.8119 31.6056 17.011 31.8047C17.4093 32.2031 17.4093 32.8512 17.011 33.2495ZM27.8615 28.3455C27.6973 28.5098 27.479 28.6004 27.2468 28.6004C27.0146 28.6004 26.7962 28.5098 26.6317 28.3451L20.4341 22.1489C20.1844 21.8994 19.78 21.8995 19.5306 22.149C19.2812 22.3985 19.2813 22.803 19.5307 23.0524L26.2066 29.7276C26.3708 29.8918 26.4612 30.1102 26.4612 30.3426C26.4612 30.5754 26.3708 30.794 26.2068 30.958C25.8672 31.2973 25.3149 31.2974 24.9759 30.9583L23.8496 29.832C23.8434 29.8255 23.8373 29.819 23.8308 29.8126C23.8289 29.8107 23.8268 29.809 23.8248 29.8072L18.6478 24.6301C18.3982 24.3806 17.9938 24.3806 17.7443 24.6301C17.4947 24.8795 17.4947 25.2841 17.7443 25.5335L22.938 30.7272C23.0967 30.8899 23.1841 31.1052 23.1841 31.3337C23.1841 31.566 23.0936 31.7844 22.9294 31.9486C22.5905 32.2878 22.0387 32.2878 21.6995 31.9486L16.0679 26.317C15.8182 26.0674 15.4139 26.0674 15.1643 26.317C14.9148 26.5664 14.9148 26.9709 15.1643 27.2204L19.3389 31.395C19.34 31.3961 19.341 31.3975 19.3422 31.3986C19.5064 31.5624 19.5967 31.7804 19.5967 32.0126C19.5967 32.2448 19.5062 32.4633 19.3413 32.6282C19.1773 32.7925 18.959 32.8831 18.7264 32.8831C18.6703 32.8831 18.6153 32.8773 18.5616 32.8672C18.665 32.1708 18.4494 31.4359 17.9146 30.901C17.4803 30.4668 16.9029 30.2276 16.2887 30.2276C16.2716 30.2276 16.2546 30.2284 16.2375 30.2288C16.2506 29.6234 16.0273 29.0138 15.5663 28.5528C15.1319 28.1186 14.5546 27.8794 13.9404 27.8794C13.9019 27.8794 13.8637 27.8803 13.8256 27.8822C13.8563 27.2561 13.6332 26.6198 13.1561 26.1427C12.5753 25.562 11.7589 25.358 11.012 25.5296L10.5539 25.0715C9.29297 23.81 8.45407 22.2172 8.12759 20.4653C8.00798 19.8236 7.69775 19.2374 7.23049 18.77L6.10432 17.6439L12.5113 11.2369L14.108 12.8336C14.7218 13.4473 15.5574 13.7758 16.4132 13.7758C16.7965 13.7758 17.1841 13.7098 17.5575 13.5741C17.7386 13.5083 17.9258 13.461 18.1156 13.431L14.16 17.3867C13.676 17.8706 13.4094 18.514 13.4094 19.1985C13.4094 19.8829 13.676 20.5263 14.1599 21.0102C14.6594 21.5097 15.3154 21.7594 15.9716 21.7593C16.6277 21.7593 17.2839 21.5095 17.7835 21.0102L19.7702 19.0235L20.3079 19.5616C20.3081 19.5618 20.3081 19.5618 20.3083 19.562L20.3306 19.5843L20.3521 19.6058C20.3522 19.6059 20.3524 19.6061 20.3525 19.6061L20.3529 19.6065C20.3591 19.6126 20.3651 19.6184 20.3711 19.6242L27.8618 27.1148C28.0261 27.2791 28.1165 27.4975 28.1165 27.7298C28.1165 27.9626 28.0261 28.181 27.8615 28.3455ZM31.8855 18.8152C31.4422 19.2586 31.1511 19.8092 31.0438 20.4075C30.725 22.1825 29.8823 23.7953 28.6068 25.0713L28.1159 25.5624L24.0745 21.5209C24.1623 21.5274 24.2505 21.5317 24.3393 21.5317C24.7485 21.5317 25.1673 21.46 25.5841 21.2894C25.9107 21.1558 26.0671 20.7828 25.9335 20.4563C25.7999 20.1298 25.4272 19.9733 25.1004 20.1069C23.4562 20.7796 21.4849 18.9257 21.2655 18.712C21.2618 18.7084 21.2581 18.7049 21.2544 18.7015L21.2317 18.6788C21.2317 18.6787 21.2316 18.6787 21.2315 18.6786L21.2117 18.659C21.2117 18.6589 21.2115 18.6587 21.2113 18.6586L20.6735 18.1204L21.2834 17.5105C21.533 17.261 21.533 16.8565 21.2835 16.607C21.0339 16.3576 20.6295 16.3576 20.38 16.607L19.3199 17.6672C19.3195 17.6676 19.319 17.6679 19.3186 17.6683C19.3182 17.6687 19.3178 17.6692 19.3174 17.6696L16.88 20.1071C16.379 20.6079 15.5642 20.6078 15.0634 20.1071C14.8208 19.8645 14.6872 19.5419 14.6872 19.1988C14.6872 18.8557 14.8208 18.5331 15.0635 18.2905L19.2707 14.0832C19.5047 13.8492 19.7649 13.6434 20.0445 13.4709C20.7088 13.0603 21.476 12.8433 22.2633 12.8433C22.8643 12.8433 23.4695 12.9738 24.0135 13.2207C25.2512 13.7823 26.7222 13.5206 27.6737 12.5693L28.563 11.6802L33.7918 16.909L31.8855 18.8152ZM35.482 16.7926L28.6276 9.93822L31.6032 6.96277L38.4575 13.8171L35.482 16.7926Z" fill="url(#paint0_linear)"/>
<path d="M36.1252 14.9442C36.478 14.9442 36.764 14.6581 36.764 14.3053C36.764 13.9525 36.478 13.6665 36.1252 13.6665C35.7723 13.6665 35.4863 13.9525 35.4863 14.3053C35.4863 14.6581 35.7723 14.9442 36.1252 14.9442Z" fill="url(#paint1_linear)"/>
<path d="M4.1857 15.5755C4.53851 15.5755 4.82452 15.2895 4.82452 14.9367C4.82452 14.5839 4.53851 14.2979 4.1857 14.2979C3.83289 14.2979 3.54688 14.5839 3.54688 14.9367C3.54688 15.2895 3.83289 15.5755 4.1857 15.5755Z" fill="url(#paint2_linear)"/>
</g>
<defs>
<linearGradient id="paint0_linear" x1="7.69229" y1="5.17407" x2="39.697" y2="12.4388" gradientUnits="userSpaceOnUse">
<stop stop-color="#297FFF"/>
<stop offset="1" stop-color="#4CA8FD"/>
</linearGradient>
<linearGradient id="paint1_linear" x1="35.732" y1="13.6665" x2="36.7774" y2="13.8424" gradientUnits="userSpaceOnUse">
<stop stop-color="#297FFF"/>
<stop offset="1" stop-color="#4CA8FD"/>
</linearGradient>
<linearGradient id="paint2_linear" x1="3.79258" y1="14.2979" x2="4.83792" y2="14.4738" gradientUnits="userSpaceOnUse">
<stop stop-color="#297FFF"/>
<stop offset="1" stop-color="#4CA8FD"/>
</linearGradient>
<clipPath id="clip0">
<rect width="40" height="40" fill="white"/>
</clipPath>
</defs>
</svg>
