<svg width="15" height="20" viewBox="0 0 15 20" fill="none" xmlns="http://www.w3.org/2000/svg">
<g opacity="0.65">
<path d="M14.9958 4.04801C14.9945 3.92785 14.948 3.81012 14.8597 3.72176L11.2751 0.137148C11.275 0.136992 11.2748 0.136953 11.2747 0.136836C11.19 0.0522656 11.0731 0 10.944 0H0.985859C0.442227 0 0 0.442187 0 0.98582V19.0141C0 19.5577 0.442188 20 0.98582 20H14.011C14.5546 20 14.9968 19.5578 14.9968 19.0141V4.05285C14.9969 4.05113 14.996 4.04969 14.9958 4.04801ZM11.4123 1.59887L13.398 3.58457H11.4616C11.4344 3.58457 11.4123 3.56242 11.4123 3.53527V1.59887ZM14.0603 19.0142C14.0603 19.0413 14.0382 19.0634 14.011 19.0634H0.985859C0.958711 19.0634 0.936602 19.0413 0.936602 19.0142V0.98582C0.936602 0.958672 0.958711 0.936562 0.985859 0.936562H10.4757V3.53527C10.4757 4.07887 10.918 4.52117 11.4616 4.52117H14.0603V19.0142H14.0603Z" fill="#0088E1"/>
<path d="M11.6422 6.40674H3.35402C3.09543 6.40674 2.88574 6.61639 2.88574 6.87502C2.88574 7.13361 3.09543 7.3433 3.35402 7.3433H11.6421C11.9007 7.3433 12.1104 7.13361 12.1104 6.87502C12.1104 6.61639 11.9007 6.40674 11.6422 6.40674Z" fill="#0088E1"/>
<path d="M11.6422 9.23242H3.35402C3.09543 9.23242 2.88574 9.44211 2.88574 9.7007C2.88574 9.9593 3.09543 10.169 3.35402 10.169H11.6421C11.9007 10.169 12.1104 9.9593 12.1104 9.7007C12.1104 9.44211 11.9007 9.23242 11.6422 9.23242Z" fill="#0088E1"/>
<path d="M11.6422 12.0581H3.35402C3.09543 12.0581 2.88574 12.2678 2.88574 12.5264C2.88574 12.785 3.09543 12.9947 3.35402 12.9947H11.6421C11.9007 12.9947 12.1104 12.785 12.1104 12.5264C12.1104 12.2678 11.9007 12.0581 11.6422 12.0581Z" fill="#0088E1"/>
<path d="M7.49808 14.8838H3.35402C3.09543 14.8838 2.88574 15.0935 2.88574 15.3521C2.88574 15.6107 3.09543 15.8203 3.35402 15.8203H7.49808C7.75668 15.8203 7.96636 15.6107 7.96636 15.3521C7.96636 15.0934 7.75668 14.8838 7.49808 14.8838Z" fill="#0088E1"/>
</g>
</svg>
