<svg width="18" height="18" viewBox="0 0 18 18" fill="none" xmlns="http://www.w3.org/2000/svg">
<path fill-rule="evenodd" clip-rule="evenodd" d="M6.77629 11.7888C9.66316 11.7888 12.0813 9.50126 12.0813 6.58752C12.0813 3.67379 9.66316 1.38627 6.77629 1.38627C3.88942 1.38627 1.47127 3.67379 1.47127 6.58752C1.47127 9.50126 3.88942 11.7888 6.77629 11.7888ZM6.77629 13.175C10.5187 13.175 13.5526 10.2257 13.5526 6.58752C13.5526 2.94934 10.5187 0 6.77629 0C3.03385 0 0 2.94934 0 6.58752C0 10.2257 3.03385 13.175 6.77629 13.175Z" fill="white"/>
<path fill-rule="evenodd" clip-rule="evenodd" d="M17.48 16.6919C17.1927 16.9626 16.727 16.9626 16.4397 16.6919L11.3626 11.9082C11.0754 11.6375 11.0754 11.1986 11.3626 10.9279C11.6499 10.6572 12.1157 10.6572 12.403 10.9279L17.48 15.7116C17.7673 15.9823 17.7673 16.4212 17.48 16.6919Z" fill="white"/>
</svg>
